1015 (м/т)А	55.440597	37.288382
1015 (м/т)А	55.42987	37.350768
1015 (м/т)А	55.433722	37.375539
1015 (м/т)А	55.582148	37.468478
1015 (м/т)А	55.536891239	37.3936414719
1015 (м/т)А	55.600676	37.482504
1015 (м/т)А	55.455391	37.293801
1015 (м/т)А	55.486991	37.32381
1015 (м/т)А	55.473288	37.311072
1015 (м/т)А	55.467181	37.302092
1015 (м/т)А	55.477059	37.316462
1015 (м/т)А	55.424598	37.295761
1015 (м/т)А	55.42582	37.28086
1015 (м/т)А	55.429038	37.277611
1015 (м/т)А	55.436085	37.501658
1015 (м/т)А	55.432146	37.507442
1015 (м/т)А	55.429642	37.506546
1015 (м/т)А	55.434432	37.506191
1015 (м/т)А	55.427843	37.503095
1015 (м/т)А	55.4252663934754	37.4946640245617
1015 (м/т)А	55.432008	37.327626
1015 (м/т)А	55.430932	37.317559
1015 (м/т)А	55.528777	37.389171
1015 (м/т)А	55.517568	37.369812
1015 (м/т)А	55.432769	37.336547
1015 (м/т)А	55.419943	37.406027
1015 (м/т)А	55.5532478707	37.4315236085
1015 (м/т)А	55.562646	37.441026
1015 (м/т)А	55.6188997855152	37.5059636682272
1015 (м/т)А	55.6122632700438	37.4940789677197
1015 (м/т)А	55.5090248734	37.3489931852
1015 (м/т)А	55.5012360775	37.3333484307
1015 (м/т)А	55.565334	37.444317
1015 (м/т)А	55.5116907175	37.3549026561
1015 (м/т)А	55.50429	37.338277
1015 (м/т)А	55.5890903906	37.4745603915
1015 (м/т)А	55.428701	37.305834
1015 (м/т)А	55.433443	37.366898
1015 (м/т)А	55.425824	37.398209
1015 (м/т)А	55.439935	37.489501
1015 (м/т)А	55.521658	37.382115
1015 (м/т)А	55.6030120067	37.4847562431
1015 (м/т)А	55.5576621059	37.4333012097
1015 (м/т)А	55.4970478593	37.3305618756
1015 (м/т)А	55.4928573871	37.3276436322
1015 (м/т)А	55.4221073605355	37.4847021362304
1015 (м/т)А	55.41947116	37.4808397552
1015 (м/т)А	55.4347190482587	37.4547608682861
1015 (м/т)А	55.440597	37.288382
1015 (м/т)А	55.42987	37.350768
1015 (м/т)А	55.433722	37.375539
1015 (м/т)А	55.582148	37.468478
1015 (м/т)А	55.536891239	37.3936414719
1015 (м/т)А	55.600676	37.482504
1015 (м/т)А	55.455391	37.293801
1015 (м/т)А	55.486991	37.32381
1015 (м/т)А	55.473288	37.311072
1015 (м/т)А	55.467181	37.302092
1015 (м/т)А	55.477059	37.316462
1015 (м/т)А	55.424598	37.295761
1015 (м/т)А	55.42582	37.28086
1015 (м/т)А	55.429038	37.277611
1015 (м/т)А	55.436085	37.501658
1015 (м/т)А	55.432146	37.507442
1015 (м/т)А	55.429642	37.506546
1015 (м/т)А	55.434432	37.506191
1015 (м/т)А	55.427843	37.503095
1015 (м/т)А	55.4252663934754	37.4946640245617
1015 (м/т)А	55.432008	37.327626
1015 (м/т)А	55.430932	37.317559
1015 (м/т)А	55.528777	37.389171
1015 (м/т)А	55.517568	37.369812
1015 (м/т)А	55.432769	37.336547
1015 (м/т)А	55.419943	37.406027
1015 (м/т)А	55.5532478707	37.4315236085
1015 (м/т)А	55.562646	37.441026
1015 (м/т)А	55.6188997855152	37.5059636682272
1015 (м/т)А	55.6122632700438	37.4940789677197
1015 (м/т)А	55.5090248734	37.3489931852
1015 (м/т)А	55.5012360775	37.3333484307
1015 (м/т)А	55.565334	37.444317
1015 (м/т)А	55.5116907175	37.3549026561
1015 (м/т)А	55.50429	37.338277
1015 (м/т)А	55.5890903906	37.4745603915
1015 (м/т)А	55.428701	37.305834
1015 (м/т)А	55.433443	37.366898
1015 (м/т)А	55.425824	37.398209
1015 (м/т)А	55.439935	37.489501
1015 (м/т)А	55.521658	37.382115
1015 (м/т)А	55.6030120067	37.4847562431
1015 (м/т)А	55.4970478593	37.3305618756
1015 (м/т)А	55.4928573871	37.3276436322
1015 (м/т)А	55.4221073605355	37.4847021362304
1015 (м/т)А	55.41947116	37.4808397552
1015 (м/т)А	55.4347190482587	37.4547608682861
