102 (м/т)А	55.815852	37.845882
102 (м/т)А	55.825439	37.918116
102 (м/т)А	55.822783	37.928623
102 (м/т)А	55.819636	37.857289
102 (м/т)А	55.822188	37.869018
102 (м/т)А	55.825406	37.889194
102 (м/т)А	55.826387	37.913126
102 (м/т)А	55.8236399692032	37.8787197460326
102 (м/т)А	55.813286	37.832401
102 (м/т)А	55.810338	37.799505
102 (м/т)А	55.811345	37.817127
102 (м/т)А	55.81262	37.827195
102 (м/т)А	55.8118594404257	37.821430178578
102 (м/т)А	55.8103732047988	37.8055085858656
102 (м/т)А	55.8105786228714	37.8108944615675
102 (м/т)А	55.8261814677516	37.940151936563
102 (м/т)А	55.8249494391975	37.9459025926909
102 (м/т)А	55.8223403082068	37.9506661959014
102 (м/т)А	55.815852	37.845882
102 (м/т)А	55.825439	37.918116
102 (м/т)А	55.822783	37.928623
102 (м/т)А	55.819636	37.857289
102 (м/т)А	55.822188	37.869018
102 (м/т)А	55.825406	37.889194
102 (м/т)А	55.826387	37.913126
102 (м/т)А	55.8236399692032	37.8787197460326
102 (м/т)А	55.813286	37.832401
102 (м/т)А	55.810338	37.799505
102 (м/т)А	55.811345	37.817127
102 (м/т)А	55.81262	37.827195
102 (м/т)А	55.8118594404257	37.821430178578
102 (м/т)А	55.8103732047988	37.8055085858656
102 (м/т)А	55.8105786228714	37.8108944615675
102 (м/т)А	55.8261814677516	37.940151936563
102 (м/т)А	55.8249494391975	37.9459025926909
102 (м/т)А	55.8223403082068	37.9506661959014
