442 АшанА	55.6023553738732	37.0356017723678
442 АшанА	55.5953528048198	37.0353703068845
442 АшанА	55.5983080717482	37.0354893915403
442 АшанА	55.604048	37.049216
442 АшанА	55.6005089902227	37.0355216413735
442 АшанА	55.5927387224136	37.0411747460327
442 АшанА	55.5988094505834	37.0427828840912
442 АшанА	55.5950808173712	37.0426864920654
442 АшанА	55.6006510348	37.0438435337
442 АшанА	55.7067913890122	37.3856356022086
442 АшанБ	55.6023553738732	37.0356017723678
442 АшанБ	55.5953528048198	37.0353703068845
442 АшанБ	55.5983080717482	37.0354893915403
442 АшанБ	55.604048	37.049216
442 АшанБ	55.6005089902227	37.0355216413735
442 АшанБ	55.5927387224136	37.0411747460327
442 АшанБ	55.5988094505834	37.0427828840912
442 АшанБ	55.5950808173712	37.0426864920654
442 АшанБ	55.6006510348	37.0438435337
442 АшанБ	55.7067913890122	37.3856356022086
442 АшанВ	55.6023553738732	37.0356017723678
442 АшанВ	55.5953528048198	37.0353703068845
442 АшанВ	55.5983080717482	37.0354893915403
442 АшанВ	55.604048	37.049216
442 АшанВ	55.6005089902227	37.0355216413735
442 АшанВ	55.5927387224136	37.0411747460327
442 АшанВ	55.5988094505834	37.0427828840912
442 АшанВ	55.5950808173712	37.0426864920654
442 АшанВ	55.6006510348	37.0438435337
442 АшанВ	55.7067913890122	37.3856356022086
442 АшанГ	55.6023553738732	37.0356017723678
442 АшанГ	55.5953528048198	37.0353703068845
442 АшанГ	55.5983080717482	37.0354893915403
442 АшанГ	55.604048	37.049216
442 АшанГ	55.6005089902227	37.0355216413735
442 АшанГ	55.5927387224136	37.0411747460327
442 АшанГ	55.5988094505834	37.0427828840912
442 АшанГ	55.5950808173712	37.0426864920654
442 АшанГ	55.6006510348	37.0438435337
442 АшанГ	55.7067913890122	37.3856356022086
442 АшанА	55.6023553738732	37.0356017723678
442 АшанА	55.5953528048198	37.0353703068845
442 АшанА	55.5983080717482	37.0354893915403
442 АшанА	55.604048	37.049216
442 АшанА	55.6005089902227	37.0355216413735
442 АшанА	55.5927387224136	37.0411747460327
442 АшанА	55.5988094505834	37.0427828840912
442 АшанА	55.5950808173712	37.0426864920654
442 АшанА	55.6006510348	37.0438435337
442 АшанА	55.7067913890122	37.3856356022086
442 АшанБ	55.6023553738732	37.0356017723678
442 АшанБ	55.5953528048198	37.0353703068845
442 АшанБ	55.5983080717482	37.0354893915403
442 АшанБ	55.604048	37.049216
442 АшанБ	55.6005089902227	37.0355216413735
442 АшанБ	55.5927387224136	37.0411747460327
442 АшанБ	55.5988094505834	37.0427828840912
442 АшанБ	55.5950808173712	37.0426864920654
442 АшанБ	55.6006510348	37.0438435337
442 АшанБ	55.7067913890122	37.3856356022086
442 АшанВ	55.6023553738732	37.0356017723678
442 АшанВ	55.5953528048198	37.0353703068845
442 АшанВ	55.5983080717482	37.0354893915403
442 АшанВ	55.604048	37.049216
442 АшанВ	55.6005089902227	37.0355216413735
442 АшанВ	55.5927387224136	37.0411747460327
442 АшанВ	55.5988094505834	37.0427828840912
442 АшанВ	55.5950808173712	37.0426864920654
442 АшанВ	55.6006510348	37.0438435337
442 АшанВ	55.7067913890122	37.3856356022086
442 АшанГ	55.6023553738732	37.0356017723678
442 АшанГ	55.5953528048198	37.0353703068845
442 АшанГ	55.5983080717482	37.0354893915403
442 АшанГ	55.604048	37.049216
442 АшанГ	55.6005089902227	37.0355216413735
442 АшанГ	55.5927387224136	37.0411747460327
442 АшанГ	55.5988094505834	37.0427828840912
442 АшанГ	55.5950808173712	37.0426864920654
442 АшанГ	55.6006510348	37.0438435337
442 АшанГ	55.7067913890122	37.3856356022086
