46 (м/т)А	55.902655	38.076783
46 (м/т)А	55.904399934141	38.0859858356413
46 (м/т)А	55.9007234920693	38.1175769365232
46 (м/т)А	55.8977532932725	38.0628948809509
46 (м/т)А	55.8968540171119	38.1444228994751
46 (м/т)А	55.903086	38.136595
46 (м/т)А	55.897901	38.138485
46 (м/т)А	55.8977331491858	38.1352338753641
46 (м/т)А	55.907738	38.100681
46 (м/т)А	55.902655	38.076783
46 (м/т)А	55.904399934141	38.0859858356413
46 (м/т)А	55.9007234920693	38.1175769365232
46 (м/т)А	55.8977532932725	38.0628948809509
46 (м/т)А	55.8968540171119	38.1444228994751
46 (м/т)А	55.903086	38.136595
46 (м/т)А	55.897901	38.138485
46 (м/т)А	55.8977331491858	38.1352338753641
46 (м/т)А	55.907738	38.100681
46 (м/т)А	55.681278	37.189594
46 (м/т)А	55.689332	37.206288
46 (м/т)А	55.688682	37.201899
46 (м/т)А	55.684769	37.195033
46 (м/т)А	55.68915	37.251328
46 (м/т)А	55.698722	37.226758
46 (м/т)А	55.685657	37.260875
46 (м/т)А	55.67253	37.280565
46 (м/т)А	55.674883	37.271154
46 (м/т)А	55.682571	37.266616
46 (м/т)А	55.680033	37.265194
46 (м/т)А	55.696081	37.230487
46 (м/т)А	55.6934332244124	37.2166533459171
46 (м/т)А	55.681278	37.189594
46 (м/т)А	55.689332	37.206288
46 (м/т)А	55.688682	37.201899
46 (м/т)А	55.684769	37.195033
46 (м/т)А	55.68915	37.251328
46 (м/т)А	55.698722	37.226758
46 (м/т)А	55.685657	37.260875
46 (м/т)А	55.67253	37.280565
46 (м/т)А	55.682571	37.266616
46 (м/т)А	55.696081	37.230487
46 (м/т)А	55.6934332244124	37.2166533459171
46 (м/т)А	55.146837	37.28647
46 (м/т)А	55.146837	37.28647
46 (м/т)А	55.142564	37.285705
46 (м/т)А	55.142564	37.285705
46 (м/т)А	55.1709850838456	37.2486952319741
46 (м/т)А	55.1716040852729	37.2682869682615
46 (м/т)А	55.1716040852729	37.2682869682615
46 (м/т)А	55.129699	37.309426
46 (м/т)А	55.129699	37.309426
46 (м/т)А	55.124133	37.358538
46 (м/т)А	55.124133	37.358538
46 (м/т)А	55.127748	37.406219
46 (м/т)А	55.127748	37.406219
46 (м/т)А	55.131584	37.291299
46 (м/т)А	55.131584	37.291299
46 (м/т)А	55.130937	37.297658
46 (м/т)А	55.130937	37.297658
46 (м/т)А	55.155582	37.288179
46 (м/т)А	55.155582	37.288179
46 (м/т)А	55.164101	37.286455
46 (м/т)А	55.164101	37.286455
46 (м/т)А	55.188718	37.264282
46 (м/т)А	55.184481	37.265233
46 (м/т)А	55.184481	37.265233
46 (м/т)А	55.149118	37.489663
46 (м/т)А	55.149118	37.489663
46 (м/т)А	55.12361	37.338754
46 (м/т)А	55.12361	37.338754
46 (м/т)А	55.123496	37.344762
46 (м/т)А	55.123496	37.344762
46 (м/т)А	55.127208	37.328918
46 (м/т)А	55.127208	37.328918
46 (м/т)А	55.145061	37.474466
46 (м/т)А	55.145061	37.474466
46 (м/т)А	55.143923	37.469743
46 (м/т)А	55.143923	37.469743
46 (м/т)А	55.146727	37.48155
46 (м/т)А	55.146727	37.48155
46 (м/т)А	55.130144	37.415446
46 (м/т)А	55.130144	37.415446
46 (м/т)А	55.135402	37.431196
46 (м/т)А	55.135402	37.431196
46 (м/т)А	55.141532	37.460856
46 (м/т)А	55.141532	37.460856
46 (м/т)А	55.141974	37.453084
46 (м/т)А	55.141974	37.453084
46 (м/т)А	55.137048	37.444371
46 (м/т)А	55.137048	37.444371
46 (м/т)А	55.128515	37.387336
46 (м/т)А	55.128515	37.387336
46 (м/т)Б	55.146837	37.28647
46 (м/т)Б	55.146837	37.28647
46 (м/т)Б	55.142564	37.285705
46 (м/т)Б	55.142564	37.285705
46 (м/т)Б	55.1709850838456	37.2486952319741
46 (м/т)Б	55.1716040852729	37.2682869682615
46 (м/т)Б	55.1716040852729	37.2682869682615
46 (м/т)Б	55.129699	37.309426
46 (м/т)Б	55.129699	37.309426
46 (м/т)Б	55.124133	37.358538
46 (м/т)Б	55.124133	37.358538
46 (м/т)Б	55.127748	37.406219
46 (м/т)Б	55.127748	37.406219
46 (м/т)Б	55.131584	37.291299
46 (м/т)Б	55.131584	37.291299
46 (м/т)Б	55.130937	37.297658
46 (м/т)Б	55.130937	37.297658
46 (м/т)Б	55.155582	37.288179
46 (м/т)Б	55.155582	37.288179
46 (м/т)Б	55.164101	37.286455
46 (м/т)Б	55.164101	37.286455
46 (м/т)Б	55.188718	37.264282
46 (м/т)Б	55.184481	37.265233
46 (м/т)Б	55.184481	37.265233
46 (м/т)Б	55.149118	37.489663
46 (м/т)Б	55.149118	37.489663
46 (м/т)Б	55.12361	37.338754
46 (м/т)Б	55.12361	37.338754
46 (м/т)Б	55.123496	37.344762
46 (м/т)Б	55.123496	37.344762
46 (м/т)Б	55.127208	37.328918
46 (м/т)Б	55.127208	37.328918
46 (м/т)Б	55.145061	37.474466
46 (м/т)Б	55.145061	37.474466
46 (м/т)Б	55.143923	37.469743
46 (м/т)Б	55.143923	37.469743
46 (м/т)Б	55.146727	37.48155
46 (м/т)Б	55.146727	37.48155
46 (м/т)Б	55.130144	37.415446
46 (м/т)Б	55.130144	37.415446
46 (м/т)Б	55.135402	37.431196
46 (м/т)Б	55.135402	37.431196
46 (м/т)Б	55.141532	37.460856
46 (м/т)Б	55.141532	37.460856
46 (м/т)Б	55.141974	37.453084
46 (м/т)Б	55.141974	37.453084
46 (м/т)Б	55.137048	37.444371
46 (м/т)Б	55.137048	37.444371
46 (м/т)Б	55.128515	37.387336
46 (м/т)Б	55.128515	37.387336
46 (м/т)В	55.146837	37.28647
46 (м/т)В	55.146837	37.28647
46 (м/т)В	55.142564	37.285705
46 (м/т)В	55.142564	37.285705
46 (м/т)В	55.1709850838456	37.2486952319741
46 (м/т)В	55.1716040852729	37.2682869682615
46 (м/т)В	55.1716040852729	37.2682869682615
46 (м/т)В	55.129699	37.309426
46 (м/т)В	55.129699	37.309426
46 (м/т)В	55.124133	37.358538
46 (м/т)В	55.124133	37.358538
46 (м/т)В	55.127748	37.406219
46 (м/т)В	55.127748	37.406219
46 (м/т)В	55.131584	37.291299
46 (м/т)В	55.131584	37.291299
46 (м/т)В	55.130937	37.297658
46 (м/т)В	55.130937	37.297658
46 (м/т)В	55.155582	37.288179
46 (м/т)В	55.155582	37.288179
46 (м/т)В	55.164101	37.286455
46 (м/т)В	55.164101	37.286455
46 (м/т)В	55.188718	37.264282
46 (м/т)В	55.184481	37.265233
46 (м/т)В	55.184481	37.265233
46 (м/т)В	55.149118	37.489663
46 (м/т)В	55.149118	37.489663
46 (м/т)В	55.12361	37.338754
46 (м/т)В	55.12361	37.338754
46 (м/т)В	55.123496	37.344762
46 (м/т)В	55.123496	37.344762
46 (м/т)В	55.127208	37.328918
46 (м/т)В	55.127208	37.328918
46 (м/т)В	55.145061	37.474466
46 (м/т)В	55.145061	37.474466
46 (м/т)В	55.143923	37.469743
46 (м/т)В	55.143923	37.469743
46 (м/т)В	55.146727	37.48155
46 (м/т)В	55.146727	37.48155
46 (м/т)В	55.130144	37.415446
46 (м/т)В	55.130144	37.415446
46 (м/т)В	55.135402	37.431196
46 (м/т)В	55.135402	37.431196
46 (м/т)В	55.141532	37.460856
46 (м/т)В	55.141532	37.460856
46 (м/т)В	55.141974	37.453084
46 (м/т)В	55.141974	37.453084
46 (м/т)В	55.137048	37.444371
46 (м/т)В	55.137048	37.444371
46 (м/т)В	55.128515	37.387336
46 (м/т)В	55.128515	37.387336
46 (м/т)А	55.146837	37.28647
46 (м/т)А	55.146837	37.28647
46 (м/т)А	55.142564	37.285705
46 (м/т)А	55.142564	37.285705
46 (м/т)А	55.1709850838456	37.2486952319741
46 (м/т)А	55.1716040852729	37.2682869682615
46 (м/т)А	55.1716040852729	37.2682869682615
46 (м/т)А	55.129699	37.309426
46 (м/т)А	55.129699	37.309426
46 (м/т)А	55.124133	37.358538
46 (м/т)А	55.124133	37.358538
46 (м/т)А	55.127748	37.406219
46 (м/т)А	55.127748	37.406219
46 (м/т)А	55.131584	37.291299
46 (м/т)А	55.131584	37.291299
46 (м/т)А	55.130937	37.297658
46 (м/т)А	55.130937	37.297658
46 (м/т)А	55.155582	37.288179
46 (м/т)А	55.155582	37.288179
46 (м/т)А	55.164101	37.286455
46 (м/т)А	55.164101	37.286455
46 (м/т)А	55.188718	37.264282
46 (м/т)А	55.184481	37.265233
46 (м/т)А	55.184481	37.265233
46 (м/т)А	55.149118	37.489663
46 (м/т)А	55.149118	37.489663
46 (м/т)А	55.12361	37.338754
46 (м/т)А	55.12361	37.338754
46 (м/т)А	55.123496	37.344762
46 (м/т)А	55.123496	37.344762
46 (м/т)А	55.127208	37.328918
46 (м/т)А	55.127208	37.328918
46 (м/т)А	55.145061	37.474466
46 (м/т)А	55.145061	37.474466
46 (м/т)А	55.143923	37.469743
46 (м/т)А	55.143923	37.469743
46 (м/т)А	55.146727	37.48155
46 (м/т)А	55.146727	37.48155
46 (м/т)А	55.130144	37.415446
46 (м/т)А	55.130144	37.415446
46 (м/т)А	55.135402	37.431196
46 (м/т)А	55.135402	37.431196
46 (м/т)А	55.141532	37.460856
46 (м/т)А	55.141532	37.460856
46 (м/т)А	55.141974	37.453084
46 (м/т)А	55.141974	37.453084
46 (м/т)А	55.137048	37.444371
46 (м/т)А	55.137048	37.444371
46 (м/т)А	55.128515	37.387336
46 (м/т)А	55.128515	37.387336
46 (м/т)Б	55.146837	37.28647
46 (м/т)Б	55.146837	37.28647
46 (м/т)Б	55.142564	37.285705
46 (м/т)Б	55.142564	37.285705
46 (м/т)Б	55.1709850838456	37.2486952319741
46 (м/т)Б	55.1716040852729	37.2682869682615
46 (м/т)Б	55.1716040852729	37.2682869682615
46 (м/т)Б	55.129699	37.309426
46 (м/т)Б	55.129699	37.309426
46 (м/т)Б	55.124133	37.358538
46 (м/т)Б	55.124133	37.358538
46 (м/т)Б	55.127748	37.406219
46 (м/т)Б	55.127748	37.406219
46 (м/т)Б	55.131584	37.291299
46 (м/т)Б	55.131584	37.291299
46 (м/т)Б	55.130937	37.297658
46 (м/т)Б	55.130937	37.297658
46 (м/т)Б	55.155582	37.288179
46 (м/т)Б	55.155582	37.288179
46 (м/т)Б	55.164101	37.286455
46 (м/т)Б	55.164101	37.286455
46 (м/т)Б	55.188718	37.264282
46 (м/т)Б	55.184481	37.265233
46 (м/т)Б	55.184481	37.265233
46 (м/т)Б	55.149118	37.489663
46 (м/т)Б	55.149118	37.489663
46 (м/т)Б	55.12361	37.338754
46 (м/т)Б	55.12361	37.338754
46 (м/т)Б	55.123496	37.344762
46 (м/т)Б	55.123496	37.344762
46 (м/т)Б	55.127208	37.328918
46 (м/т)Б	55.127208	37.328918
46 (м/т)Б	55.145061	37.474466
46 (м/т)Б	55.145061	37.474466
46 (м/т)Б	55.143923	37.469743
46 (м/т)Б	55.143923	37.469743
46 (м/т)Б	55.146727	37.48155
46 (м/т)Б	55.146727	37.48155
46 (м/т)Б	55.130144	37.415446
46 (м/т)Б	55.130144	37.415446
46 (м/т)Б	55.135402	37.431196
46 (м/т)Б	55.135402	37.431196
46 (м/т)Б	55.141532	37.460856
46 (м/т)Б	55.141532	37.460856
46 (м/т)Б	55.141974	37.453084
46 (м/т)Б	55.141974	37.453084
46 (м/т)Б	55.137048	37.444371
46 (м/т)Б	55.137048	37.444371
46 (м/т)Б	55.128515	37.387336
46 (м/т)Б	55.128515	37.387336
46 (м/т)А	55.146837	37.28647
46 (м/т)А	55.142564	37.285705
46 (м/т)А	55.1709850838456	37.2486952319741
46 (м/т)А	55.1716040852729	37.2682869682615
46 (м/т)А	55.129699	37.309426
46 (м/т)А	55.124133	37.358538
46 (м/т)А	55.127748	37.406219
46 (м/т)А	55.131584	37.291299
46 (м/т)А	55.130937	37.297658
46 (м/т)А	55.155582	37.288179
46 (м/т)А	55.164101	37.286455
46 (м/т)А	55.149118	37.489663
46 (м/т)А	55.12361	37.338754
46 (м/т)А	55.123496	37.344762
46 (м/т)А	55.127208	37.328918
46 (м/т)А	55.145061	37.474466
46 (м/т)А	55.143923	37.469743
46 (м/т)А	55.146727	37.48155
46 (м/т)А	55.130144	37.415446
46 (м/т)А	55.135402	37.431196
46 (м/т)А	55.141532	37.460856
46 (м/т)А	55.141974	37.453084
46 (м/т)А	55.137048	37.444371
46 (м/т)А	55.128515	37.387336
46 (м/т)А	55.146837	37.28647
46 (м/т)А	55.142564	37.285705
46 (м/т)А	55.1709850838456	37.2486952319741
46 (м/т)А	55.1716040852729	37.2682869682615
46 (м/т)А	55.129699	37.309426
46 (м/т)А	55.124133	37.358538
46 (м/т)А	55.127748	37.406219
46 (м/т)А	55.131584	37.291299
46 (м/т)А	55.130937	37.297658
46 (м/т)А	55.155582	37.288179
46 (м/т)А	55.164101	37.286455
46 (м/т)А	55.149118	37.489663
46 (м/т)А	55.12361	37.338754
46 (м/т)А	55.123496	37.344762
46 (м/т)А	55.127208	37.328918
46 (м/т)А	55.145061	37.474466
46 (м/т)А	55.143923	37.469743
46 (м/т)А	55.146727	37.48155
46 (м/т)А	55.130144	37.415446
46 (м/т)А	55.135402	37.431196
46 (м/т)А	55.141532	37.460856
46 (м/т)А	55.141974	37.453084
46 (м/т)А	55.137048	37.444371
46 (м/т)А	55.128515	37.387336
46 (м/т)А	55.146837	37.28647
46 (м/т)А	55.142564	37.285705
46 (м/т)А	55.1716040852729	37.2682869682615
46 (м/т)А	55.129699	37.309426
46 (м/т)А	55.124133	37.358538
46 (м/т)А	55.127748	37.406219
46 (м/т)А	55.131584	37.291299
46 (м/т)А	55.130937	37.297658
46 (м/т)А	55.155582	37.288179
46 (м/т)А	55.164101	37.286455
46 (м/т)А	55.188718	37.264282
46 (м/т)А	55.184481	37.265233
46 (м/т)А	55.149118	37.489663
46 (м/т)А	55.12361	37.338754
46 (м/т)А	55.123496	37.344762
46 (м/т)А	55.127208	37.328918
46 (м/т)А	55.145061	37.474466
46 (м/т)А	55.143923	37.469743
46 (м/т)А	55.146727	37.48155
46 (м/т)А	55.130144	37.415446
46 (м/т)А	55.135402	37.431196
46 (м/т)А	55.141532	37.460856
46 (м/т)А	55.141974	37.453084
46 (м/т)А	55.137048	37.444371
46 (м/т)А	55.128515	37.387336
46 (м/т)А	55.146837	37.28647
46 (м/т)А	55.142564	37.285705
46 (м/т)А	55.1716040852729	37.2682869682615
46 (м/т)А	55.129699	37.309426
46 (м/т)А	55.124133	37.358538
46 (м/т)А	55.127748	37.406219
46 (м/т)А	55.131584	37.291299
46 (м/т)А	55.130937	37.297658
46 (м/т)А	55.155582	37.288179
46 (м/т)А	55.164101	37.286455
46 (м/т)А	55.188718	37.264282
46 (м/т)А	55.184481	37.265233
46 (м/т)А	55.149118	37.489663
46 (м/т)А	55.12361	37.338754
46 (м/т)А	55.123496	37.344762
46 (м/т)А	55.127208	37.328918
46 (м/т)А	55.145061	37.474466
46 (м/т)А	55.143923	37.469743
46 (м/т)А	55.146727	37.48155
46 (м/т)А	55.130144	37.415446
46 (м/т)А	55.135402	37.431196
46 (м/т)А	55.141532	37.460856
46 (м/т)А	55.141974	37.453084
46 (м/т)А	55.137048	37.444371
46 (м/т)А	55.128515	37.387336
46 (м/т)Б	55.146837	37.28647
46 (м/т)Б	55.142564	37.285705
46 (м/т)Б	55.1716040852729	37.2682869682615
46 (м/т)Б	55.129699	37.309426
46 (м/т)Б	55.124133	37.358538
46 (м/т)Б	55.127748	37.406219
46 (м/т)Б	55.131584	37.291299
46 (м/т)Б	55.130937	37.297658
46 (м/т)Б	55.155582	37.288179
46 (м/т)Б	55.164101	37.286455
46 (м/т)Б	55.188718	37.264282
46 (м/т)Б	55.184481	37.265233
46 (м/т)Б	55.149118	37.489663
46 (м/т)Б	55.12361	37.338754
46 (м/т)Б	55.123496	37.344762
46 (м/т)Б	55.127208	37.328918
46 (м/т)Б	55.145061	37.474466
46 (м/т)Б	55.143923	37.469743
46 (м/т)Б	55.146727	37.48155
46 (м/т)Б	55.130144	37.415446
46 (м/т)Б	55.135402	37.431196
46 (м/т)Б	55.141532	37.460856
46 (м/т)Б	55.141974	37.453084
46 (м/т)Б	55.137048	37.444371
46 (м/т)Б	55.128515	37.387336
46 (м/т)А	55.146837	37.28647
46 (м/т)А	55.146837	37.28647
46 (м/т)А	55.142564	37.285705
46 (м/т)А	55.142564	37.285705
46 (м/т)А	55.1709850838456	37.2486952319741
46 (м/т)А	55.1716040852729	37.2682869682615
46 (м/т)А	55.1716040852729	37.2682869682615
46 (м/т)А	55.129699	37.309426
46 (м/т)А	55.129699	37.309426
46 (м/т)А	55.124133	37.358538
46 (м/т)А	55.124133	37.358538
46 (м/т)А	55.127748	37.406219
46 (м/т)А	55.127748	37.406219
46 (м/т)А	55.131584	37.291299
46 (м/т)А	55.131584	37.291299
46 (м/т)А	55.130937	37.297658
46 (м/т)А	55.130937	37.297658
46 (м/т)А	55.155582	37.288179
46 (м/т)А	55.155582	37.288179
46 (м/т)А	55.164101	37.286455
46 (м/т)А	55.164101	37.286455
46 (м/т)А	55.188718	37.264282
46 (м/т)А	55.184481	37.265233
46 (м/т)А	55.184481	37.265233
46 (м/т)А	55.149118	37.489663
46 (м/т)А	55.149118	37.489663
46 (м/т)А	55.12361	37.338754
46 (м/т)А	55.12361	37.338754
46 (м/т)А	55.123496	37.344762
46 (м/т)А	55.123496	37.344762
46 (м/т)А	55.127208	37.328918
46 (м/т)А	55.127208	37.328918
46 (м/т)А	55.145061	37.474466
46 (м/т)А	55.145061	37.474466
46 (м/т)А	55.143923	37.469743
46 (м/т)А	55.143923	37.469743
46 (м/т)А	55.146727	37.48155
46 (м/т)А	55.146727	37.48155
46 (м/т)А	55.130144	37.415446
46 (м/т)А	55.130144	37.415446
46 (м/т)А	55.135402	37.431196
46 (м/т)А	55.135402	37.431196
46 (м/т)А	55.141532	37.460856
46 (м/т)А	55.141532	37.460856
46 (м/т)А	55.141974	37.453084
46 (м/т)А	55.141974	37.453084
46 (м/т)А	55.137048	37.444371
46 (м/т)А	55.137048	37.444371
46 (м/т)А	55.128515	37.387336
46 (м/т)А	55.128515	37.387336
46 (м/т)Б	55.146837	37.28647
46 (м/т)Б	55.146837	37.28647
46 (м/т)Б	55.142564	37.285705
46 (м/т)Б	55.142564	37.285705
46 (м/т)Б	55.1709850838456	37.2486952319741
46 (м/т)Б	55.1716040852729	37.2682869682615
46 (м/т)Б	55.1716040852729	37.2682869682615
46 (м/т)Б	55.129699	37.309426
46 (м/т)Б	55.129699	37.309426
46 (м/т)Б	55.124133	37.358538
46 (м/т)Б	55.124133	37.358538
46 (м/т)Б	55.127748	37.406219
46 (м/т)Б	55.127748	37.406219
46 (м/т)Б	55.131584	37.291299
46 (м/т)Б	55.131584	37.291299
46 (м/т)Б	55.130937	37.297658
46 (м/т)Б	55.130937	37.297658
46 (м/т)Б	55.155582	37.288179
46 (м/т)Б	55.155582	37.288179
46 (м/т)Б	55.164101	37.286455
46 (м/т)Б	55.164101	37.286455
46 (м/т)Б	55.188718	37.264282
46 (м/т)Б	55.184481	37.265233
46 (м/т)Б	55.184481	37.265233
46 (м/т)Б	55.149118	37.489663
46 (м/т)Б	55.149118	37.489663
46 (м/т)Б	55.12361	37.338754
46 (м/т)Б	55.12361	37.338754
46 (м/т)Б	55.123496	37.344762
46 (м/т)Б	55.123496	37.344762
46 (м/т)Б	55.127208	37.328918
46 (м/т)Б	55.127208	37.328918
46 (м/т)Б	55.145061	37.474466
46 (м/т)Б	55.145061	37.474466
46 (м/т)Б	55.143923	37.469743
46 (м/т)Б	55.143923	37.469743
46 (м/т)Б	55.146727	37.48155
46 (м/т)Б	55.146727	37.48155
46 (м/т)Б	55.130144	37.415446
46 (м/т)Б	55.130144	37.415446
46 (м/т)Б	55.135402	37.431196
46 (м/т)Б	55.135402	37.431196
46 (м/т)Б	55.141532	37.460856
46 (м/т)Б	55.141532	37.460856
46 (м/т)Б	55.141974	37.453084
46 (м/т)Б	55.141974	37.453084
46 (м/т)Б	55.137048	37.444371
46 (м/т)Б	55.137048	37.444371
46 (м/т)Б	55.128515	37.387336
46 (м/т)Б	55.128515	37.387336
46 (м/т)В	55.146837	37.28647
46 (м/т)В	55.146837	37.28647
46 (м/т)В	55.142564	37.285705
46 (м/т)В	55.142564	37.285705
46 (м/т)В	55.1709850838456	37.2486952319741
46 (м/т)В	55.1716040852729	37.2682869682615
46 (м/т)В	55.1716040852729	37.2682869682615
46 (м/т)В	55.129699	37.309426
46 (м/т)В	55.129699	37.309426
46 (м/т)В	55.124133	37.358538
46 (м/т)В	55.124133	37.358538
46 (м/т)В	55.127748	37.406219
46 (м/т)В	55.127748	37.406219
46 (м/т)В	55.131584	37.291299
46 (м/т)В	55.131584	37.291299
46 (м/т)В	55.130937	37.297658
46 (м/т)В	55.130937	37.297658
46 (м/т)В	55.155582	37.288179
46 (м/т)В	55.155582	37.288179
46 (м/т)В	55.164101	37.286455
46 (м/т)В	55.164101	37.286455
46 (м/т)В	55.188718	37.264282
46 (м/т)В	55.184481	37.265233
46 (м/т)В	55.184481	37.265233
46 (м/т)В	55.149118	37.489663
46 (м/т)В	55.149118	37.489663
46 (м/т)В	55.12361	37.338754
46 (м/т)В	55.12361	37.338754
46 (м/т)В	55.123496	37.344762
46 (м/т)В	55.123496	37.344762
46 (м/т)В	55.127208	37.328918
46 (м/т)В	55.127208	37.328918
46 (м/т)В	55.145061	37.474466
46 (м/т)В	55.145061	37.474466
46 (м/т)В	55.143923	37.469743
46 (м/т)В	55.143923	37.469743
46 (м/т)В	55.146727	37.48155
46 (м/т)В	55.146727	37.48155
46 (м/т)В	55.130144	37.415446
46 (м/т)В	55.130144	37.415446
46 (м/т)В	55.135402	37.431196
46 (м/т)В	55.135402	37.431196
46 (м/т)В	55.141532	37.460856
46 (м/т)В	55.141532	37.460856
46 (м/т)В	55.141974	37.453084
46 (м/т)В	55.141974	37.453084
46 (м/т)В	55.137048	37.444371
46 (м/т)В	55.137048	37.444371
46 (м/т)В	55.128515	37.387336
46 (м/т)В	55.128515	37.387336
46 (м/т)А	55.146837	37.28647
46 (м/т)А	55.146837	37.28647
46 (м/т)А	55.142564	37.285705
46 (м/т)А	55.142564	37.285705
46 (м/т)А	55.1709850838456	37.2486952319741
46 (м/т)А	55.1716040852729	37.2682869682615
46 (м/т)А	55.1716040852729	37.2682869682615
46 (м/т)А	55.129699	37.309426
46 (м/т)А	55.129699	37.309426
46 (м/т)А	55.124133	37.358538
46 (м/т)А	55.124133	37.358538
46 (м/т)А	55.127748	37.406219
46 (м/т)А	55.127748	37.406219
46 (м/т)А	55.131584	37.291299
46 (м/т)А	55.131584	37.291299
46 (м/т)А	55.130937	37.297658
46 (м/т)А	55.130937	37.297658
46 (м/т)А	55.155582	37.288179
46 (м/т)А	55.155582	37.288179
46 (м/т)А	55.164101	37.286455
46 (м/т)А	55.164101	37.286455
46 (м/т)А	55.188718	37.264282
46 (м/т)А	55.184481	37.265233
46 (м/т)А	55.184481	37.265233
46 (м/т)А	55.149118	37.489663
46 (м/т)А	55.149118	37.489663
46 (м/т)А	55.12361	37.338754
46 (м/т)А	55.12361	37.338754
46 (м/т)А	55.123496	37.344762
46 (м/т)А	55.123496	37.344762
46 (м/т)А	55.127208	37.328918
46 (м/т)А	55.127208	37.328918
46 (м/т)А	55.145061	37.474466
46 (м/т)А	55.145061	37.474466
46 (м/т)А	55.143923	37.469743
46 (м/т)А	55.143923	37.469743
46 (м/т)А	55.146727	37.48155
46 (м/т)А	55.146727	37.48155
46 (м/т)А	55.130144	37.415446
46 (м/т)А	55.130144	37.415446
46 (м/т)А	55.135402	37.431196
46 (м/т)А	55.135402	37.431196
46 (м/т)А	55.141532	37.460856
46 (м/т)А	55.141532	37.460856
46 (м/т)А	55.141974	37.453084
46 (м/т)А	55.141974	37.453084
46 (м/т)А	55.137048	37.444371
46 (м/т)А	55.137048	37.444371
46 (м/т)А	55.128515	37.387336
46 (м/т)А	55.128515	37.387336
46 (м/т)А	55.146837	37.28647
46 (м/т)А	55.146837	37.28647
46 (м/т)А	55.142564	37.285705
46 (м/т)А	55.142564	37.285705
46 (м/т)А	55.1709850838456	37.2486952319741
46 (м/т)А	55.1716040852729	37.2682869682615
46 (м/т)А	55.1716040852729	37.2682869682615
46 (м/т)А	55.129699	37.309426
46 (м/т)А	55.129699	37.309426
46 (м/т)А	55.124133	37.358538
46 (м/т)А	55.124133	37.358538
46 (м/т)А	55.127748	37.406219
46 (м/т)А	55.127748	37.406219
46 (м/т)А	55.131584	37.291299
46 (м/т)А	55.131584	37.291299
46 (м/т)А	55.130937	37.297658
46 (м/т)А	55.130937	37.297658
46 (м/т)А	55.155582	37.288179
46 (м/т)А	55.155582	37.288179
46 (м/т)А	55.164101	37.286455
46 (м/т)А	55.164101	37.286455
46 (м/т)А	55.188718	37.264282
46 (м/т)А	55.184481	37.265233
46 (м/т)А	55.184481	37.265233
46 (м/т)А	55.149118	37.489663
46 (м/т)А	55.149118	37.489663
46 (м/т)А	55.12361	37.338754
46 (м/т)А	55.12361	37.338754
46 (м/т)А	55.123496	37.344762
46 (м/т)А	55.123496	37.344762
46 (м/т)А	55.127208	37.328918
46 (м/т)А	55.127208	37.328918
46 (м/т)А	55.145061	37.474466
46 (м/т)А	55.145061	37.474466
46 (м/т)А	55.143923	37.469743
46 (м/т)А	55.143923	37.469743
46 (м/т)А	55.146727	37.48155
46 (м/т)А	55.146727	37.48155
46 (м/т)А	55.130144	37.415446
46 (м/т)А	55.130144	37.415446
46 (м/т)А	55.135402	37.431196
46 (м/т)А	55.135402	37.431196
46 (м/т)А	55.141532	37.460856
46 (м/т)А	55.141532	37.460856
46 (м/т)А	55.141974	37.453084
46 (м/т)А	55.141974	37.453084
46 (м/т)А	55.137048	37.444371
46 (м/т)А	55.137048	37.444371
46 (м/т)А	55.128515	37.387336
46 (м/т)А	55.128515	37.387336
46 (м/т)А	56.3674212583108	38.140638358891
46 (м/т)А	56.369291798052	38.146679867059
46 (м/т)А	56.36936632	38.1608229876
46 (м/т)А	56.3671076164	38.1826048717
46 (м/т)А	56.364263	38.192938
46 (м/т)А	56.3587891194651	38.1867391534423
46 (м/т)А	56.3321001226892	38.155927285552
46 (м/т)А	56.3382159580718	38.1627452932298
46 (м/т)А	56.322097	38.144015
46 (м/т)А	56.341586	38.1667
46 (м/т)А	56.3018272642	38.1297530847
46 (м/т)А	56.3262337851971	38.1494737230239
46 (м/т)А	56.316979	38.138165
46 (м/т)А	56.3288285022105	38.1519602380981
46 (м/т)А	56.334845	38.159134
46 (м/т)А	56.303828	38.135861
46 (м/т)А	56.3128641462779	38.1349323227538
46 (м/т)А	56.3544931494	38.1816217989
46 (м/т)А	56.3467899399056	38.1723854761962
46 (м/т)А	56.3674212583108	38.140638358891
46 (м/т)А	56.369291798052	38.146679867059
46 (м/т)А	56.36936632	38.1608229876
46 (м/т)А	56.3671076164	38.1826048717
46 (м/т)А	56.364263	38.192938
46 (м/т)А	56.3587891194651	38.1867391534423
46 (м/т)А	56.3321001226892	38.155927285552
46 (м/т)А	56.3382159580718	38.1627452932298
46 (м/т)А	56.322097	38.144015
46 (м/т)А	56.341586	38.1667
46 (м/т)А	56.3018272642	38.1297530847
46 (м/т)А	56.316979	38.138165
46 (м/т)А	56.3288285022105	38.1519602380981
46 (м/т)А	56.334845	38.159134
46 (м/т)А	56.303828	38.135861
46 (м/т)А	56.3128641462779	38.1349323227538
46 (м/т)А	56.3544931494	38.1816217989
46 (м/т)А	56.3467899399056	38.1723854761962
46 (м/т)А	55.580619	38.242521
46 (м/т)А	55.5880266647013	38.2504252010494
46 (м/т)А	55.573826	38.238083
46 (м/т)А	55.565171	38.227452
46 (м/т)А	55.602883	38.266044
46 (м/т)А	55.60873	38.272266
46 (м/т)А	55.564508	38.233208
46 (м/т)А	55.582591	38.244623
46 (м/т)А	55.5780981310529	38.2401616613769
46 (м/т)А	55.567877999891	38.2369966111144
46 (м/т)А	55.61246	38.283591
46 (м/т)А	55.612154	38.293604
46 (м/т)А	55.6133946496948	38.3002257719636
46 (м/т)А	55.6196918786207	38.3030771277844
46 (м/т)А	55.6264706892583	38.3028441108764
46 (м/т)А	55.614164	38.278068
46 (м/т)А	55.6154959926502	38.3036431192199
46 (м/т)А	55.6243359221323	38.3021114329009
46 (м/т)Б	55.580619	38.242521
46 (м/т)Б	55.5880266647013	38.2504252010494
46 (м/т)Б	55.573826	38.238083
46 (м/т)Б	55.565171	38.227452
46 (м/т)Б	55.602883	38.266044
46 (м/т)Б	55.60873	38.272266
46 (м/т)Б	55.564508	38.233208
46 (м/т)Б	55.582591	38.244623
46 (м/т)Б	55.5780981310529	38.2401616613769
46 (м/т)Б	55.567877999891	38.2369966111144
46 (м/т)Б	55.61246	38.283591
46 (м/т)Б	55.612154	38.293604
46 (м/т)Б	55.6133946496948	38.3002257719636
46 (м/т)Б	55.6196918786207	38.3030771277844
46 (м/т)Б	55.6264706892583	38.3028441108764
46 (м/т)Б	55.614164	38.278068
46 (м/т)Б	55.6154959926502	38.3036431192199
46 (м/т)Б	55.6243359221323	38.3021114329009
46 (м/т)В	55.580619	38.242521
46 (м/т)В	55.5880266647013	38.2504252010494
46 (м/т)В	55.573826	38.238083
46 (м/т)В	55.565171	38.227452
46 (м/т)В	55.602883	38.266044
46 (м/т)В	55.60873	38.272266
46 (м/т)В	55.564508	38.233208
46 (м/т)В	55.582591	38.244623
46 (м/т)В	55.5780981310529	38.2401616613769
46 (м/т)В	55.567877999891	38.2369966111144
46 (м/т)В	55.61246	38.283591
46 (м/т)В	55.612154	38.293604
46 (м/т)В	55.6133946496948	38.3002257719636
46 (м/т)В	55.6196918786207	38.3030771277844
46 (м/т)В	55.6264706892583	38.3028441108764
46 (м/т)В	55.614164	38.278068
46 (м/т)В	55.6154959926502	38.3036431192199
46 (м/т)В	55.6243359221323	38.3021114329009
46 (м/т)Г	55.580619	38.242521
46 (м/т)Г	55.5880266647013	38.2504252010494
46 (м/т)Г	55.573826	38.238083
46 (м/т)Г	55.565171	38.227452
46 (м/т)Г	55.602883	38.266044
46 (м/т)Г	55.60873	38.272266
46 (м/т)Г	55.564508	38.233208
46 (м/т)Г	55.582591	38.244623
46 (м/т)Г	55.5780981310529	38.2401616613769
46 (м/т)Г	55.567877999891	38.2369966111144
46 (м/т)Г	55.61246	38.283591
46 (м/т)Г	55.612154	38.293604
46 (м/т)Г	55.6133946496948	38.3002257719636
46 (м/т)Г	55.6196918786207	38.3030771277844
46 (м/т)Г	55.6264706892583	38.3028441108764
46 (м/т)Г	55.614164	38.278068
46 (м/т)Г	55.6154959926502	38.3036431192199
46 (м/т)Г	55.6243359221323	38.3021114329009
46 (м/т)Д	55.580619	38.242521
46 (м/т)Д	55.5880266647013	38.2504252010494
46 (м/т)Д	55.573826	38.238083
46 (м/т)Д	55.565171	38.227452
46 (м/т)Д	55.602883	38.266044
46 (м/т)Д	55.60873	38.272266
46 (м/т)Д	55.564508	38.233208
46 (м/т)Д	55.582591	38.244623
46 (м/т)Д	55.5780981310529	38.2401616613769
46 (м/т)Д	55.567877999891	38.2369966111144
46 (м/т)Д	55.61246	38.283591
46 (м/т)Д	55.612154	38.293604
46 (м/т)Д	55.6133946496948	38.3002257719636
46 (м/т)Д	55.6196918786207	38.3030771277844
46 (м/т)Д	55.6264706892583	38.3028441108764
46 (м/т)Д	55.614164	38.278068
46 (м/т)Д	55.6154959926502	38.3036431192199
46 (м/т)Д	55.6243359221323	38.3021114329009
46 (м/т)Е	55.580619	38.242521
46 (м/т)Е	55.5880266647013	38.2504252010494
46 (м/т)Е	55.573826	38.238083
46 (м/т)Е	55.565171	38.227452
46 (м/т)Е	55.602883	38.266044
46 (м/т)Е	55.60873	38.272266
46 (м/т)Е	55.564508	38.233208
46 (м/т)Е	55.582591	38.244623
46 (м/т)Е	55.5780981310529	38.2401616613769
46 (м/т)Е	55.567877999891	38.2369966111144
46 (м/т)Е	55.61246	38.283591
46 (м/т)Е	55.612154	38.293604
46 (м/т)Е	55.6133946496948	38.3002257719636
46 (м/т)Е	55.6196918786207	38.3030771277844
46 (м/т)Е	55.6264706892583	38.3028441108764
46 (м/т)Е	55.614164	38.278068
46 (м/т)Е	55.6154959926502	38.3036431192199
46 (м/т)Е	55.6243359221323	38.3021114329009
46 (м/т)Ж	55.580619	38.242521
46 (м/т)Ж	55.5880266647013	38.2504252010494
46 (м/т)Ж	55.573826	38.238083
46 (м/т)Ж	55.565171	38.227452
46 (м/т)Ж	55.602883	38.266044
46 (м/т)Ж	55.60873	38.272266
46 (м/т)Ж	55.564508	38.233208
46 (м/т)Ж	55.582591	38.244623
46 (м/т)Ж	55.5780981310529	38.2401616613769
46 (м/т)Ж	55.567877999891	38.2369966111144
46 (м/т)Ж	55.61246	38.283591
46 (м/т)Ж	55.612154	38.293604
46 (м/т)Ж	55.6133946496948	38.3002257719636
46 (м/т)Ж	55.6196918786207	38.3030771277844
46 (м/т)Ж	55.6264706892583	38.3028441108764
46 (м/т)Ж	55.614164	38.278068
46 (м/т)Ж	55.6154959926502	38.3036431192199
46 (м/т)Ж	55.6243359221323	38.3021114329009
46 (м/т)З	55.580619	38.242521
46 (м/т)З	55.5880266647013	38.2504252010494
46 (м/т)З	55.573826	38.238083
46 (м/т)З	55.565171	38.227452
46 (м/т)З	55.602883	38.266044
46 (м/т)З	55.60873	38.272266
46 (м/т)З	55.564508	38.233208
46 (м/т)З	55.582591	38.244623
46 (м/т)З	55.5780981310529	38.2401616613769
46 (м/т)З	55.567877999891	38.2369966111144
46 (м/т)З	55.61246	38.283591
46 (м/т)З	55.612154	38.293604
46 (м/т)З	55.6133946496948	38.3002257719636
46 (м/т)З	55.6196918786207	38.3030771277844
46 (м/т)З	55.6264706892583	38.3028441108764
46 (м/т)З	55.614164	38.278068
46 (м/т)З	55.6154959926502	38.3036431192199
46 (м/т)З	55.6243359221323	38.3021114329009
46 (м/т)И	55.580619	38.242521
46 (м/т)И	55.5880266647013	38.2504252010494
46 (м/т)И	55.573826	38.238083
46 (м/т)И	55.565171	38.227452
46 (м/т)И	55.602883	38.266044
46 (м/т)И	55.60873	38.272266
46 (м/т)И	55.564508	38.233208
46 (м/т)И	55.582591	38.244623
46 (м/т)И	55.5780981310529	38.2401616613769
46 (м/т)И	55.567877999891	38.2369966111144
46 (м/т)И	55.61246	38.283591
46 (м/т)И	55.612154	38.293604
46 (м/т)И	55.6133946496948	38.3002257719636
46 (м/т)И	55.6196918786207	38.3030771277844
46 (м/т)И	55.6264706892583	38.3028441108764
46 (м/т)И	55.614164	38.278068
46 (м/т)И	55.6154959926502	38.3036431192199
46 (м/т)И	55.6243359221323	38.3021114329009
46 (м/т)К	55.580619	38.242521
46 (м/т)К	55.5880266647013	38.2504252010494
46 (м/т)К	55.573826	38.238083
46 (м/т)К	55.565171	38.227452
46 (м/т)К	55.602883	38.266044
46 (м/т)К	55.60873	38.272266
46 (м/т)К	55.564508	38.233208
46 (м/т)К	55.582591	38.244623
46 (м/т)К	55.5780981310529	38.2401616613769
46 (м/т)К	55.567877999891	38.2369966111144
46 (м/т)К	55.61246	38.283591
46 (м/т)К	55.612154	38.293604
46 (м/т)К	55.6133946496948	38.3002257719636
46 (м/т)К	55.6196918786207	38.3030771277844
46 (м/т)К	55.6264706892583	38.3028441108764
46 (м/т)К	55.614164	38.278068
46 (м/т)К	55.6154959926502	38.3036431192199
46 (м/т)К	55.6243359221323	38.3021114329009
46 (м/т)Л	55.580619	38.242521
46 (м/т)Л	55.5880266647013	38.2504252010494
46 (м/т)Л	55.573826	38.238083
46 (м/т)Л	55.565171	38.227452
46 (м/т)Л	55.602883	38.266044
46 (м/т)Л	55.60873	38.272266
46 (м/т)Л	55.564508	38.233208
46 (м/т)Л	55.582591	38.244623
46 (м/т)Л	55.5780981310529	38.2401616613769
46 (м/т)Л	55.567877999891	38.2369966111144
46 (м/т)Л	55.61246	38.283591
46 (м/т)Л	55.612154	38.293604
46 (м/т)Л	55.6133946496948	38.3002257719636
46 (м/т)Л	55.6196918786207	38.3030771277844
46 (м/т)Л	55.6264706892583	38.3028441108764
46 (м/т)Л	55.614164	38.278068
46 (м/т)Л	55.6154959926502	38.3036431192199
46 (м/т)Л	55.6243359221323	38.3021114329009
46 (м/т)М	55.580619	38.242521
46 (м/т)М	55.5880266647013	38.2504252010494
46 (м/т)М	55.573826	38.238083
46 (м/т)М	55.565171	38.227452
46 (м/т)М	55.602883	38.266044
46 (м/т)М	55.60873	38.272266
46 (м/т)М	55.564508	38.233208
46 (м/т)М	55.582591	38.244623
46 (м/т)М	55.5780981310529	38.2401616613769
46 (м/т)М	55.567877999891	38.2369966111144
46 (м/т)М	55.61246	38.283591
46 (м/т)М	55.612154	38.293604
46 (м/т)М	55.6133946496948	38.3002257719636
46 (м/т)М	55.6196918786207	38.3030771277844
46 (м/т)М	55.6264706892583	38.3028441108764
46 (м/т)М	55.614164	38.278068
46 (м/т)М	55.6154959926502	38.3036431192199
46 (м/т)М	55.6243359221323	38.3021114329009
46 (м/т)Н	55.580619	38.242521
46 (м/т)Н	55.5880266647013	38.2504252010494
46 (м/т)Н	55.573826	38.238083
46 (м/т)Н	55.565171	38.227452
46 (м/т)Н	55.602883	38.266044
46 (м/т)Н	55.60873	38.272266
46 (м/т)Н	55.564508	38.233208
46 (м/т)Н	55.582591	38.244623
46 (м/т)Н	55.5780981310529	38.2401616613769
46 (м/т)Н	55.567877999891	38.2369966111144
46 (м/т)Н	55.61246	38.283591
46 (м/т)Н	55.612154	38.293604
46 (м/т)Н	55.6133946496948	38.3002257719636
46 (м/т)Н	55.6196918786207	38.3030771277844
46 (м/т)Н	55.6264706892583	38.3028441108764
46 (м/т)Н	55.614164	38.278068
46 (м/т)Н	55.6154959926502	38.3036431192199
46 (м/т)Н	55.6243359221323	38.3021114329009
46 (м/т)О	55.580619	38.242521
46 (м/т)О	55.5880266647013	38.2504252010494
46 (м/т)О	55.573826	38.238083
46 (м/т)О	55.565171	38.227452
46 (м/т)О	55.602883	38.266044
46 (м/т)О	55.60873	38.272266
46 (м/т)О	55.564508	38.233208
46 (м/т)О	55.582591	38.244623
46 (м/т)О	55.5780981310529	38.2401616613769
46 (м/т)О	55.567877999891	38.2369966111144
46 (м/т)О	55.61246	38.283591
46 (м/т)О	55.612154	38.293604
46 (м/т)О	55.6133946496948	38.3002257719636
46 (м/т)О	55.6196918786207	38.3030771277844
46 (м/т)О	55.6264706892583	38.3028441108764
46 (м/т)О	55.614164	38.278068
46 (м/т)О	55.6154959926502	38.3036431192199
46 (м/т)О	55.6243359221323	38.3021114329009
46 (м/т)П	55.580619	38.242521
46 (м/т)П	55.5880266647013	38.2504252010494
46 (м/т)П	55.573826	38.238083
46 (м/т)П	55.565171	38.227452
46 (м/т)П	55.602883	38.266044
46 (м/т)П	55.60873	38.272266
46 (м/т)П	55.564508	38.233208
46 (м/т)П	55.582591	38.244623
46 (м/т)П	55.5780981310529	38.2401616613769
46 (м/т)П	55.567877999891	38.2369966111144
46 (м/т)П	55.61246	38.283591
46 (м/т)П	55.612154	38.293604
46 (м/т)П	55.6133946496948	38.3002257719636
46 (м/т)П	55.6196918786207	38.3030771277844
46 (м/т)П	55.6264706892583	38.3028441108764
46 (м/т)П	55.614164	38.278068
46 (м/т)П	55.6154959926502	38.3036431192199
46 (м/т)П	55.6243359221323	38.3021114329009
46 (м/т)А	55.580619	38.242521
46 (м/т)А	55.569313	38.237127
46 (м/т)А	55.5880266647013	38.2504252010494
46 (м/т)А	55.573826	38.238083
46 (м/т)А	55.565171	38.227452
46 (м/т)А	55.602883	38.266044
46 (м/т)А	55.60873	38.272266
46 (м/т)А	55.564508	38.233208
46 (м/т)А	55.576113	38.238404
46 (м/т)А	55.582591	38.244623
46 (м/т)А	55.61246	38.283591
46 (м/т)А	55.612154	38.293604
46 (м/т)А	55.6133946496948	38.3002257719636
46 (м/т)А	55.6196918786207	38.3030771277844
46 (м/т)А	55.6264706892583	38.3028441108764
46 (м/т)А	55.614164	38.278068
46 (м/т)А	55.6154959926502	38.3036431192199
46 (м/т)А	55.6243359221323	38.3021114329009
46 (м/т)Б	55.580619	38.242521
46 (м/т)Б	55.569313	38.237127
46 (м/т)Б	55.5880266647013	38.2504252010494
46 (м/т)Б	55.573826	38.238083
46 (м/т)Б	55.565171	38.227452
46 (м/т)Б	55.602883	38.266044
46 (м/т)Б	55.60873	38.272266
46 (м/т)Б	55.564508	38.233208
46 (м/т)Б	55.576113	38.238404
46 (м/т)Б	55.582591	38.244623
46 (м/т)Б	55.61246	38.283591
46 (м/т)Б	55.612154	38.293604
46 (м/т)Б	55.6133946496948	38.3002257719636
46 (м/т)Б	55.6196918786207	38.3030771277844
46 (м/т)Б	55.6264706892583	38.3028441108764
46 (м/т)Б	55.614164	38.278068
46 (м/т)Б	55.6154959926502	38.3036431192199
46 (м/т)Б	55.6243359221323	38.3021114329009
46 (м/т)В	55.580619	38.242521
46 (м/т)В	55.569313	38.237127
46 (м/т)В	55.5880266647013	38.2504252010494
46 (м/т)В	55.573826	38.238083
46 (м/т)В	55.565171	38.227452
46 (м/т)В	55.602883	38.266044
46 (м/т)В	55.60873	38.272266
46 (м/т)В	55.564508	38.233208
46 (м/т)В	55.576113	38.238404
46 (м/т)В	55.582591	38.244623
46 (м/т)В	55.61246	38.283591
46 (м/т)В	55.612154	38.293604
46 (м/т)В	55.6133946496948	38.3002257719636
46 (м/т)В	55.6196918786207	38.3030771277844
46 (м/т)В	55.6264706892583	38.3028441108764
46 (м/т)В	55.614164	38.278068
46 (м/т)В	55.6154959926502	38.3036431192199
46 (м/т)В	55.6243359221323	38.3021114329009
46 (м/т)Г	55.580619	38.242521
46 (м/т)Г	55.569313	38.237127
46 (м/т)Г	55.5880266647013	38.2504252010494
46 (м/т)Г	55.573826	38.238083
46 (м/т)Г	55.565171	38.227452
46 (м/т)Г	55.602883	38.266044
46 (м/т)Г	55.60873	38.272266
46 (м/т)Г	55.564508	38.233208
46 (м/т)Г	55.576113	38.238404
46 (м/т)Г	55.582591	38.244623
46 (м/т)Г	55.61246	38.283591
46 (м/т)Г	55.612154	38.293604
46 (м/т)Г	55.6133946496948	38.3002257719636
46 (м/т)Г	55.6196918786207	38.3030771277844
46 (м/т)Г	55.6264706892583	38.3028441108764
46 (м/т)Г	55.614164	38.278068
46 (м/т)Г	55.6154959926502	38.3036431192199
46 (м/т)Г	55.6243359221323	38.3021114329009
46 (м/т)Д	55.580619	38.242521
46 (м/т)Д	55.569313	38.237127
46 (м/т)Д	55.5880266647013	38.2504252010494
46 (м/т)Д	55.573826	38.238083
46 (м/т)Д	55.565171	38.227452
46 (м/т)Д	55.602883	38.266044
46 (м/т)Д	55.60873	38.272266
46 (м/т)Д	55.564508	38.233208
46 (м/т)Д	55.576113	38.238404
46 (м/т)Д	55.582591	38.244623
46 (м/т)Д	55.61246	38.283591
46 (м/т)Д	55.612154	38.293604
46 (м/т)Д	55.6133946496948	38.3002257719636
46 (м/т)Д	55.6196918786207	38.3030771277844
46 (м/т)Д	55.6264706892583	38.3028441108764
46 (м/т)Д	55.614164	38.278068
46 (м/т)Д	55.6154959926502	38.3036431192199
46 (м/т)Д	55.6243359221323	38.3021114329009
46 (м/т)Е	55.580619	38.242521
46 (м/т)Е	55.569313	38.237127
46 (м/т)Е	55.5880266647013	38.2504252010494
46 (м/т)Е	55.573826	38.238083
46 (м/т)Е	55.565171	38.227452
46 (м/т)Е	55.602883	38.266044
46 (м/т)Е	55.60873	38.272266
46 (м/т)Е	55.564508	38.233208
46 (м/т)Е	55.576113	38.238404
46 (м/т)Е	55.582591	38.244623
46 (м/т)Е	55.61246	38.283591
46 (м/т)Е	55.612154	38.293604
46 (м/т)Е	55.6133946496948	38.3002257719636
46 (м/т)Е	55.6196918786207	38.3030771277844
46 (м/т)Е	55.6264706892583	38.3028441108764
46 (м/т)Е	55.614164	38.278068
46 (м/т)Е	55.6154959926502	38.3036431192199
46 (м/т)Е	55.6243359221323	38.3021114329009
46 (м/т)Ж	55.580619	38.242521
46 (м/т)Ж	55.569313	38.237127
46 (м/т)Ж	55.5880266647013	38.2504252010494
46 (м/т)Ж	55.573826	38.238083
46 (м/т)Ж	55.565171	38.227452
46 (м/т)Ж	55.602883	38.266044
46 (м/т)Ж	55.60873	38.272266
46 (м/т)Ж	55.564508	38.233208
46 (м/т)Ж	55.576113	38.238404
46 (м/т)Ж	55.582591	38.244623
46 (м/т)Ж	55.61246	38.283591
46 (м/т)Ж	55.612154	38.293604
46 (м/т)Ж	55.6133946496948	38.3002257719636
46 (м/т)Ж	55.6196918786207	38.3030771277844
46 (м/т)Ж	55.6264706892583	38.3028441108764
46 (м/т)Ж	55.614164	38.278068
46 (м/т)Ж	55.6154959926502	38.3036431192199
46 (м/т)Ж	55.6243359221323	38.3021114329009
46 (м/т)З	55.580619	38.242521
46 (м/т)З	55.569313	38.237127
46 (м/т)З	55.5880266647013	38.2504252010494
46 (м/т)З	55.573826	38.238083
46 (м/т)З	55.565171	38.227452
46 (м/т)З	55.602883	38.266044
46 (м/т)З	55.60873	38.272266
46 (м/т)З	55.564508	38.233208
46 (м/т)З	55.576113	38.238404
46 (м/т)З	55.582591	38.244623
46 (м/т)З	55.61246	38.283591
46 (м/т)З	55.612154	38.293604
46 (м/т)З	55.6133946496948	38.3002257719636
46 (м/т)З	55.6196918786207	38.3030771277844
46 (м/т)З	55.6264706892583	38.3028441108764
46 (м/т)З	55.614164	38.278068
46 (м/т)З	55.6154959926502	38.3036431192199
46 (м/т)З	55.6243359221323	38.3021114329009
46 (м/т)И	55.580619	38.242521
46 (м/т)И	55.569313	38.237127
46 (м/т)И	55.5880266647013	38.2504252010494
46 (м/т)И	55.573826	38.238083
46 (м/т)И	55.565171	38.227452
46 (м/т)И	55.602883	38.266044
46 (м/т)И	55.60873	38.272266
46 (м/т)И	55.564508	38.233208
46 (м/т)И	55.576113	38.238404
46 (м/т)И	55.582591	38.244623
46 (м/т)И	55.61246	38.283591
46 (м/т)И	55.612154	38.293604
46 (м/т)И	55.6133946496948	38.3002257719636
46 (м/т)И	55.6196918786207	38.3030771277844
46 (м/т)И	55.6264706892583	38.3028441108764
46 (м/т)И	55.614164	38.278068
46 (м/т)И	55.6154959926502	38.3036431192199
46 (м/т)И	55.6243359221323	38.3021114329009
46 (м/т)К	55.580619	38.242521
46 (м/т)К	55.569313	38.237127
46 (м/т)К	55.5880266647013	38.2504252010494
46 (м/т)К	55.573826	38.238083
46 (м/т)К	55.565171	38.227452
46 (м/т)К	55.602883	38.266044
46 (м/т)К	55.60873	38.272266
46 (м/т)К	55.564508	38.233208
46 (м/т)К	55.576113	38.238404
46 (м/т)К	55.582591	38.244623
46 (м/т)К	55.61246	38.283591
46 (м/т)К	55.612154	38.293604
46 (м/т)К	55.6133946496948	38.3002257719636
46 (м/т)К	55.6196918786207	38.3030771277844
46 (м/т)К	55.6264706892583	38.3028441108764
46 (м/т)К	55.614164	38.278068
46 (м/т)К	55.6154959926502	38.3036431192199
46 (м/т)К	55.6243359221323	38.3021114329009
46 (м/т)Л	55.580619	38.242521
46 (м/т)Л	55.569313	38.237127
46 (м/т)Л	55.5880266647013	38.2504252010494
46 (м/т)Л	55.573826	38.238083
46 (м/т)Л	55.565171	38.227452
46 (м/т)Л	55.602883	38.266044
46 (м/т)Л	55.60873	38.272266
46 (м/т)Л	55.564508	38.233208
46 (м/т)Л	55.576113	38.238404
46 (м/т)Л	55.582591	38.244623
46 (м/т)Л	55.61246	38.283591
46 (м/т)Л	55.612154	38.293604
46 (м/т)Л	55.6133946496948	38.3002257719636
46 (м/т)Л	55.6196918786207	38.3030771277844
46 (м/т)Л	55.6264706892583	38.3028441108764
46 (м/т)Л	55.614164	38.278068
46 (м/т)Л	55.6154959926502	38.3036431192199
46 (м/т)Л	55.6243359221323	38.3021114329009
46 (м/т)М	55.580619	38.242521
46 (м/т)М	55.569313	38.237127
46 (м/т)М	55.5880266647013	38.2504252010494
46 (м/т)М	55.573826	38.238083
46 (м/т)М	55.565171	38.227452
46 (м/т)М	55.602883	38.266044
46 (м/т)М	55.60873	38.272266
46 (м/т)М	55.564508	38.233208
46 (м/т)М	55.576113	38.238404
46 (м/т)М	55.582591	38.244623
46 (м/т)М	55.61246	38.283591
46 (м/т)М	55.612154	38.293604
46 (м/т)М	55.6133946496948	38.3002257719636
46 (м/т)М	55.6196918786207	38.3030771277844
46 (м/т)М	55.6264706892583	38.3028441108764
46 (м/т)М	55.614164	38.278068
46 (м/т)М	55.6154959926502	38.3036431192199
46 (м/т)М	55.6243359221323	38.3021114329009
46 (м/т)Н	55.580619	38.242521
46 (м/т)Н	55.569313	38.237127
46 (м/т)Н	55.5880266647013	38.2504252010494
46 (м/т)Н	55.573826	38.238083
46 (м/т)Н	55.565171	38.227452
46 (м/т)Н	55.602883	38.266044
46 (м/т)Н	55.60873	38.272266
46 (м/т)Н	55.564508	38.233208
46 (м/т)Н	55.576113	38.238404
46 (м/т)Н	55.582591	38.244623
46 (м/т)Н	55.61246	38.283591
46 (м/т)Н	55.612154	38.293604
46 (м/т)Н	55.6133946496948	38.3002257719636
46 (м/т)Н	55.6196918786207	38.3030771277844
46 (м/т)Н	55.6264706892583	38.3028441108764
46 (м/т)Н	55.614164	38.278068
46 (м/т)Н	55.6154959926502	38.3036431192199
46 (м/т)Н	55.6243359221323	38.3021114329009
46 (м/т)О	55.580619	38.242521
46 (м/т)О	55.569313	38.237127
46 (м/т)О	55.5880266647013	38.2504252010494
46 (м/т)О	55.573826	38.238083
46 (м/т)О	55.565171	38.227452
46 (м/т)О	55.602883	38.266044
46 (м/т)О	55.60873	38.272266
46 (м/т)О	55.564508	38.233208
46 (м/т)О	55.576113	38.238404
46 (м/т)О	55.582591	38.244623
46 (м/т)О	55.61246	38.283591
46 (м/т)О	55.612154	38.293604
46 (м/т)О	55.6133946496948	38.3002257719636
46 (м/т)О	55.6196918786207	38.3030771277844
46 (м/т)О	55.6264706892583	38.3028441108764
46 (м/т)О	55.614164	38.278068
46 (м/т)О	55.6154959926502	38.3036431192199
46 (м/т)О	55.6243359221323	38.3021114329009
46 (м/т)П	55.580619	38.242521
46 (м/т)П	55.569313	38.237127
46 (м/т)П	55.5880266647013	38.2504252010494
46 (м/т)П	55.573826	38.238083
46 (м/т)П	55.565171	38.227452
46 (м/т)П	55.602883	38.266044
46 (м/т)П	55.60873	38.272266
46 (м/т)П	55.564508	38.233208
46 (м/т)П	55.576113	38.238404
46 (м/т)П	55.582591	38.244623
46 (м/т)П	55.61246	38.283591
46 (м/т)П	55.612154	38.293604
46 (м/т)П	55.6133946496948	38.3002257719636
46 (м/т)П	55.6196918786207	38.3030771277844
46 (м/т)П	55.6264706892583	38.3028441108764
46 (м/т)П	55.614164	38.278068
46 (м/т)П	55.6154959926502	38.3036431192199
46 (м/т)П	55.6243359221323	38.3021114329009
46 (м/т)Р	55.580619	38.242521
46 (м/т)Р	55.569313	38.237127
46 (м/т)Р	55.5880266647013	38.2504252010494
46 (м/т)Р	55.573826	38.238083
46 (м/т)Р	55.565171	38.227452
46 (м/т)Р	55.602883	38.266044
46 (м/т)Р	55.60873	38.272266
46 (м/т)Р	55.564508	38.233208
46 (м/т)Р	55.576113	38.238404
46 (м/т)Р	55.582591	38.244623
46 (м/т)Р	55.61246	38.283591
46 (м/т)Р	55.612154	38.293604
46 (м/т)Р	55.6133946496948	38.3002257719636
46 (м/т)Р	55.6196918786207	38.3030771277844
46 (м/т)Р	55.6264706892583	38.3028441108764
46 (м/т)Р	55.614164	38.278068
46 (м/т)Р	55.6154959926502	38.3036431192199
46 (м/т)Р	55.6243359221323	38.3021114329009
