6 (м/т)А	55.813911	37.961233
6 (м/т)А	55.7642611138	37.9225938767
6 (м/т)А	55.7715433185	37.9269497842
6 (м/т)А	55.833294	37.971792
6 (м/т)А	55.833294	37.971792
6 (м/т)А	55.807911	37.94608
6 (м/т)А	55.7593248891	37.9214351624
6 (м/т)А	55.796243	37.93426
6 (м/т)А	55.7821331538	37.9315539636
6 (м/т)А	55.802942	37.934972
6 (м/т)А	55.7895964721942	37.9315936937928
6 (м/т)А	55.810259	37.950633
6 (м/т)А	55.7671645009	37.9242246598
6 (м/т)А	55.817709	37.966405
6 (м/т)А	55.7931603804766	37.932064421475
6 (м/т)А	55.794889	37.934296
6 (м/т)А	55.830234	37.971506
6 (м/т)А	55.820783	37.968232
6 (м/т)А	55.836113	37.9677
6 (м/т)А	55.814425	37.966654
6 (м/т)А	55.814115	37.954251
6 (м/т)А	55.823953	37.97036
6 (м/т)А	55.799278	37.934359
6 (м/т)А	55.7758767193	37.9293462208
6 (м/т)А	55.8268525949367	37.9714586292724
6 (м/т)А	55.813911	37.961233
6 (м/т)А	55.7642611138	37.9225938767
6 (м/т)А	55.7715433185	37.9269497842
6 (м/т)А	55.833294	37.971792
6 (м/т)А	55.807911	37.94608
6 (м/т)А	55.7593248891	37.9214351624
6 (м/т)А	55.796243	37.93426
6 (м/т)А	55.7821331538	37.9315539636
6 (м/т)А	55.802942	37.934972
6 (м/т)А	55.7895964721942	37.9315936937928
6 (м/т)А	55.810259	37.950633
6 (м/т)А	55.7671645009	37.9242246598
6 (м/т)А	55.817709	37.966405
6 (м/т)А	55.7931603804766	37.932064421475
6 (м/т)А	55.830234	37.971506
6 (м/т)А	55.820783	37.968232
6 (м/т)А	55.814425	37.966654
6 (м/т)А	55.814115	37.954251
6 (м/т)А	55.823953	37.97036
6 (м/т)А	55.799278	37.934359
6 (м/т)А	55.7758767193	37.9293462208
6 (м/т)А	55.8268525949367	37.9714586292724
6 (м/т)А	56.044649	37.87228
6 (м/т)А	56.011647	37.862506
6 (м/т)А	56.01246	37.870435
6 (м/т)А	56.022067	37.871443
6 (м/т)А	56.010515	37.846203
6 (м/т)А	56.009107	37.854233
6 (м/т)А	56.0608185441	37.8663087264
6 (м/т)А	56.015749	37.871668
6 (м/т)А	56.032122	37.870638
6 (м/т)А	56.049838	37.877548
6 (м/т)А	56.0115464368	37.8400482941
6 (м/т)А	56.0248056888	37.8711719363
6 (м/т)А	56.044649	37.87228
6 (м/т)А	56.011647	37.862506
6 (м/т)А	56.01246	37.870435
6 (м/т)А	56.022067	37.871443
6 (м/т)А	56.010515	37.846203
6 (м/т)А	56.009107	37.854233
6 (м/т)А	56.0608185441	37.8663087264
6 (м/т)А	56.015749	37.871668
6 (м/т)А	56.032122	37.870638
6 (м/т)А	56.049838	37.877548
6 (м/т)А	56.0115464368	37.8400482941
6 (м/т)А	56.0248056888	37.8711719363
6 (м/т)А	56.044649	37.87228
6 (м/т)А	56.011647	37.862506
6 (м/т)А	56.01246	37.870435
6 (м/т)А	56.022067	37.871443
6 (м/т)А	56.010515	37.846203
6 (м/т)А	56.009107	37.854233
6 (м/т)А	56.0608185441	37.8663087264
6 (м/т)А	56.015749	37.871668
6 (м/т)А	56.032122	37.870638
6 (м/т)А	56.049838	37.877548
6 (м/т)А	56.0115464368	37.8400482941
6 (м/т)А	56.0248056888	37.8711719363
