Novaya Sloboda	55.9485640214	38.0946911126
Usadba	55.95078	38.086153
Klub	55.950588	38.078044
Firma Luch	55.953407	38.073412
Magazin	55.9567181316	38.0691653676
Chijovo	55.954983	38.058518
Avtostancia	55.948839	38.05942
Universam	55.949745	38.055447
Ulitsa Polevaya	55.951279	38.052161
Prospect Mira	55.950476	38.049132
Dachnaya	55.948221	38.045906
RTS	55.938516	38.029868
DRSU	55.934021	38.019604
Memorial	55.930681	38.012001
Noviy most	55.9255989999	38.0004258148
Proletarskiy prospect	55.920616	37.998084
Ploshad	55.919835	37.991816
Magazin Rassvet	55.916742	37.990432
Shkola 4	55.918614	37.982869
Platforma Voronok	55.9196181786	37.9741895199
Ulitsa Pushkina	55.920537	37.976856
